{
    "$schema": "https://www.krakend.io/schema/v3.json",
    "version": 3,
    "name": "APIGateway",
    "extra_config": {
          "router": {
        "error_body": {
          "404": {
            "msg": "Unknown endpoint/The requested endpoint is not configured on KrakenD",
            "status": 404
          },
          "405": {
            "oh-my-god": "What on earth are you requesting?"
          }
        }
      },
      "security/bot-detector": {
        "allow": ["MyAndroidClient/1.0", "Pingdom.com_bot_version_1.1"],
        "deny": ["a", "b"],
        "patterns": [
            "(Pingdom.com_bot_version_).*",
            "(facebookexternalhit)/.*"
        ],
        "cache_size": 10000,
        "empty_user_agent_is_bot": true
      },

      "telemetry/opencensus": {
        "sample_rate": 100,
        "reporting_period": 0,
        "exporters": {
          "jaeger": {
            "endpoint": "http://10.2.0.6:14268/api/traces",
            "service_name":"krakend",
            "buffer_max_count": 1000
          }
        }
      },
      "telemetry/influx":{
        "address":"http://10.2.0.6:8086",
        "ttl":"25s",
        "buffer_size":0,
        "db": "krakend",
        "username": "demoadmin",
        "password": "Password@123"
      },
      "telemetry/metrics": {
        "collection_time": "30s",
        "listen_address": ":8090"
      },

      "qos/ratelimit/service": {
        "max_rate": 2,
        "capacity": 1,
        "client_max_rate": 2,
        "key": "",
        "strategy": "ip",
        "client_capacity": 2
      },

      "security/cors": {
        "allow_origins": [
          "*"
        ],
        "expose_headers": [
          "Content-Length"
        ],
        "max_age": "12h",
        "allow_methods": [
          "GET",
          "HEAD",
          "POST"
        ]
      }
    },
    "timeout": "3000ms",
    "cache_ttl": "300s",
    "output_encoding": "json",
    "port": 3000,
    "debug_endpoint": true,
    "endpoints": [
      {
        "endpoint": "/api/products/{userid}",
        "input_query_strings": [
            "name"
          ],
        "method": "GET",
        "output_encoding": "json",
        "backend": [
          {
            "url_pattern": "/products/{userid}",
            "encoding": "json",
            "sd": "static",
            "method": "GET",
            "host": [
              "http://10.2.0.6:3000/",
              "http://10.2.0.6:3002/"
            ],
            "disable_host_sanitize": false,
            "deny": [
              "password",
              "conform_password"
            ],
            "mapping":{
                   "country" : "Nation"
            }
          },
          {
            "url_pattern": "/products/{userid}",
            "encoding": "json",
            "sd": "static",
            "method": "GET",
            "host": [
              "http://10.2.0.6:3001/"

            ],
            "disable_host_sanitize": false,
            "extra_config": {
                "qos/ratelimit/proxy": {
                    "max_rate": 1,
                    "capacity": 1
                  },
                  "qos/circuit-breaker": {
                    "interval": 60,
                    "timeout": 10,
                    "max_errors": 1
                  }
            }

        }
        ],
        "extra_config": {
            "qos/ratelimit/router": {
              "max_rate": 2
            }
      }
    },
    {
        "@comment": "Feature: Backend cache",
        "endpoint": "/cached",
        "backend": [
          {
            "host": ["http://10.2.0.6:3000/"],
            "url_pattern": "/products",
            "encoding": "safejson",
            "mapping":{
                "collection": "coins"
            },
            "extra_config": {
              "qos/http-cache": {
                "shared": true
              }
            }
          }
        ]
      },
      {
        "@comment": "Feature: Concurrent calls - Enabled",
        "endpoint": "/api/products",
        "concurrent_calls": 3,
        "backend": [
          {
            "host": ["http://10.2.0.6:3000/"],
            "url_pattern": "/products",
            "encoding": "safejson",
            "mapping": {
              "collection": "coins"
            }
          }
        ]
      }


    ]
  }
